module bibliotekaProject

go 1.20

require (
	github.com/golang-migrate/migrate/v4 v4.15.2
	github.com/hellofresh/health-go/v5 v5.1.1
	github.com/jmoiron/sqlx v1.3.5
	github.com/labstack/echo/v4 v4.10.1
	github.com/pkg/errors v0.9.1
)

require (
	github.com/go-sql-driver/mysql v1.6.0 // indirect
	github.com/golang-jwt/jwt v3.2.2+incompatible // indirect
	github.com/hashicorp/errwrap v1.1.0 // indirect
	github.com/hashicorp/go-multierror v1.1.1 // indirect
	github.com/labstack/gommon v0.4.0 // indirect
	github.com/lib/pq v1.10.6 // indirect
	github.com/mattn/go-colorable v0.1.13 // indirect
	github.com/mattn/go-isatty v0.0.17 // indirect
	github.com/valyala/bytebufferpool v1.0.0 // indirect
	github.com/valyala/fasttemplate v1.2.2 // indirect
	go.opentelemetry.io/otel v1.10.0 // indirect
	go.opentelemetry.io/otel/trace v1.10.0 // indirect
	go.uber.org/atomic v1.7.0 // indirect
	golang.org/x/crypto v0.6.0 // indirect
	golang.org/x/net v0.7.0 // indirect
	golang.org/x/sys v0.5.0 // indirect
	golang.org/x/text v0.7.0 // indirect
	golang.org/x/time v0.3.0 // indirect
)
